…
The dataset instacart has 15 variables and 1384617 observations. Key
variables describe different products that are being ordered for each
order placed on instacart, including the product name and id, when it is
being ordered, the aisle and department it belongs to, and the times it
is reordered.

``` r
instacart %>%
  count(department, name="num", sort=TRUE)
```

    ## # A tibble: 21 × 2
    ##    department         num
    ##    <chr>            <int>
    ##  1 produce         409087
    ##  2 dairy eggs      217051
    ##  3 snacks          118862
    ##  4 beverages       114046
    ##  5 frozen          100426
    ##  6 pantry           81242
    ##  7 bakery           48394
    ##  8 canned goods     46799
    ##  9 deli             44291
    ## 10 dry goods pasta  38713
    ## # … with 11 more rows

There are 21 departments.

``` r
instacart %>%
  count(aisle, name="num", sort=TRUE)
```

    ## # A tibble: 134 × 2
    ##    aisle                            num
    ##    <chr>                          <int>
    ##  1 fresh vegetables              150609
    ##  2 fresh fruits                  150473
    ##  3 packaged vegetables fruits     78493
    ##  4 yogurt                         55240
    ##  5 packaged cheese                41699
    ##  6 water seltzer sparkling water  36617
    ##  7 milk                           32644
    ##  8 chips pretzels                 31269
    ##  9 soy lactosefree                26240
    ## 10 bread                          23635
    ## # … with 124 more rows
…
